-- Merging decision tree log ---
manifest
ADDED from /Users/tarun/Projects/Electrical4U/android/app/src/main/AndroidManifest.xml:1:1-40:12
INJECTED from /Users/tarun/Projects/Electrical4U/android/app/src/main/AndroidManifest.xml:1:1-40:12
INJECTED from /Users/tarun/Projects/Electrical4U/android/app/src/main/AndroidManifest.xml:1:1-40:12
INJECTED from /Users/tarun/Projects/Electrical4U/android/app/src/main/AndroidManifest.xml:1:1-40:12
MERGED from /Users/tarun/Projects/Electrical4U/android/app/src/main/AndroidManifest.xml:1:1-40:12
MERGED from [:react-native-snackbar] /Users/tarun/Projects/Electrical4U/node_modules/react-native-snackbar/android/build/intermediates/library_manifest/debug/AndroidManifest.xml:2:1-11:12
MERGED from [:react-native-webview] /Users/tarun/Projects/Electrical4U/node_modules/react-native-webview/android/build/intermediates/library_manifest/debug/AndroidManifest.xml:2:1-23:12
MERGED from [:lottie-react-native] /Users/tarun/Projects/Electrical4U/node_modules/lottie-react-native/src/android/build/intermediates/library_manifest/debug/AndroidManifest.xml:2:1-11:12
MERGED from [:react-native-auth0] /Users/tarun/Projects/Electrical4U/node_modules/react-native-auth0/android/build/intermediates/library_manifest/debug/AndroidManifest.xml:2:1-14:12
MERGED from [:@react-native-community_async-storage] /Users/tarun/Projects/Electrical4U/node_modules/@react-native-community/async-storage/android/build/intermediates/library_manifest/debug/AndroidManifest.xml:2:1-9:12
MERGED from [:react-native-splash-screen] /Users/tarun/Projects/Electrical4U/node_modules/react-native-splash-screen/android/build/intermediates/library_manifest/debug/AndroidManifest.xml:2:1-14:12
MERGED from [:react-native-gesture-handler] /Users/tarun/Projects/Electrical4U/node_modules/react-native-gesture-handler/android/build/intermediates/library_manifest/debug/AndroidManifest.xml:2:1-11:12
MERGED from [com.facebook.react:react-native:0.59.3] /Users/tarun/.gradle/caches/transforms-1/files-1.1/react-native-0.59.3.aar/8e2e1bd500ee5d94151b0d7aa6637fa9/AndroidManifest.xml:2:1-13:12
MERGED from [com.android.support:design:28.0.0] /Users/tarun/.gradle/caches/transforms-1/files-1.1/design-28.0.0.aar/ad9ebb95c543f7728466b26e89c0fd63/AndroidManifest.xml:17:1-24:12
MERGED from [com.airbnb.android:lottie:2.5.6] /Users/tarun/.gradle/caches/transforms-1/files-1.1/lottie-2.5.6.aar/de9b693baf96b9e86fda30b11ce18ba5/AndroidManifest.xml:2:1-13:12
MERGED from [com.android.support:appcompat-v7:28.0.0] /Users/tarun/.gradle/caches/transforms-1/files-1.1/appcompat-v7-28.0.0.aar/c4225e7f9a5099b6b2ea19197b566862/AndroidManifest.xml:17:1-22:12
MERGED from [com.android.support:support-v4:28.0.0] /Users/tarun/.gradle/caches/transforms-1/files-1.1/support-v4-28.0.0.aar/add567e1ac1587c5553d16a3de43c96b/AndroidManifest.xml:17:1-22:12
MERGED from [com.android.support:customtabs:28.0.0] /Users/tarun/.gradle/caches/transforms-1/files-1.1/customtabs-28.0.0.aar/be239105ec8fefa58da91bc8dd86288f/AndroidManifest.xml:17:1-22:12
MERGED from [com.android.support:support-fragment:28.0.0] /Users/tarun/.gradle/caches/transforms-1/files-1.1/support-fragment-28.0.0.aar/0774be8c538fc470aa69c78859584e56/AndroidManifest.xml:17:1-22:12
MERGED from [com.android.support:animated-vector-drawable:28.0.0] /Users/tarun/.gradle/caches/transforms-1/files-1.1/animated-vector-drawable-28.0.0.aar/d948719e4bedef3ef7932f879f1c26dc/AndroidManifest.xml:17:1-22:12
MERGED from [com.android.support:recyclerview-v7:28.0.0] /Users/tarun/.gradle/caches/transforms-1/files-1.1/recyclerview-v7-28.0.0.aar/a10a32660396eeab5a91e9bcd9986585/AndroidManifest.xml:17:1-22:12
MERGED from [com.android.support:support-core-ui:28.0.0] /Users/tarun/.gradle/caches/transforms-1/files-1.1/support-core-ui-28.0.0.aar/7f1dec4472fd0f4377216ac7be32c730/AndroidManifest.xml:17:1-22:12
MERGED from [com.android.support:support-core-utils:28.0.0] /Users/tarun/.gradle/caches/transforms-1/files-1.1/support-core-utils-28.0.0.aar/d6629831927a4faf3c3b3ed2602d38cc/AndroidManifest.xml:17:1-22:12
MERGED from [com.android.support:support-vector-drawable:28.0.0] /Users/tarun/.gradle/caches/transforms-1/files-1.1/support-vector-drawable-28.0.0.aar/e62b4dac0e098cb36ff8e1585ca17ff1/AndroidManifest.xml:17:1-22:12
MERGED from [com.android.support:support-media-compat:28.0.0] /Users/tarun/.gradle/caches/transforms-1/files-1.1/support-media-compat-28.0.0.aar/bd01dc4605de3611f1dd88e49c9025e5/AndroidManifest.xml:17:1-22:12
MERGED from [com.android.support:transition:28.0.0] /Users/tarun/.gradle/caches/transforms-1/files-1.1/transition-28.0.0.aar/bde0340804d81edfc833bfb83fd0ca39/AndroidManifest.xml:17:1-22:12
MERGED from [com.android.support:loader:28.0.0] /Users/tarun/.gradle/caches/transforms-1/files-1.1/loader-28.0.0.aar/4b65a941f69bf07ad29b3ae7350c9150/AndroidManifest.xml:17:1-22:12
MERGED from [com.android.support:viewpager:28.0.0] /Users/tarun/.gradle/caches/transforms-1/files-1.1/viewpager-28.0.0.aar/d34b9739a61ca0e322cdd0d1cb0be8c8/AndroidManifest.xml:17:1-22:12
MERGED from [com.android.support:coordinatorlayout:28.0.0] /Users/tarun/.gradle/caches/transforms-1/files-1.1/coordinatorlayout-28.0.0.aar/330d5ff014276389ced0351b6e5e58eb/AndroidManifest.xml:17:1-22:12
MERGED from [com.android.support:drawerlayout:28.0.0] /Users/tarun/.gradle/caches/transforms-1/files-1.1/drawerlayout-28.0.0.aar/921501d67fead7118cfb96cd320f3c10/AndroidManifest.xml:17:1-22:12
MERGED from [com.android.support:slidingpanelayout:28.0.0] /Users/tarun/.gradle/caches/transforms-1/files-1.1/slidingpanelayout-28.0.0.aar/4486ff6a46861c129764a811554a558a/AndroidManifest.xml:17:1-22:12
MERGED from [com.android.support:customview:28.0.0] /Users/tarun/.gradle/caches/transforms-1/files-1.1/customview-28.0.0.aar/e24edaadffc60e478b8584d4c1a39baf/AndroidManifest.xml:17:1-22:12
MERGED from [com.android.support:swiperefreshlayout:28.0.0] /Users/tarun/.gradle/caches/transforms-1/files-1.1/swiperefreshlayout-28.0.0.aar/f197c9ec1f96cd96d2fc7ea2dfd882e6/AndroidManifest.xml:17:1-22:12
MERGED from [com.android.support:asynclayoutinflater:28.0.0] /Users/tarun/.gradle/caches/transforms-1/files-1.1/asynclayoutinflater-28.0.0.aar/e2830d4a9ce8f657dd5f5fe13f457e9c/AndroidManifest.xml:17:1-22:12
MERGED from [com.android.support:support-compat:28.0.0] /Users/tarun/.gradle/caches/transforms-1/files-1.1/support-compat-28.0.0.aar/65696362e30bcf2799df14744b0a628b/AndroidManifest.xml:17:1-24:12
MERGED from [com.android.support:versionedparcelable:28.0.0] /Users/tarun/.gradle/caches/transforms-1/files-1.1/versionedparcelable-28.0.0.aar/14862ce14df9e3ca6b5586bf73ab734f/AndroidManifest.xml:17:1-25:12
MERGED from [com.android.support:cursoradapter:28.0.0] /Users/tarun/.gradle/caches/transforms-1/files-1.1/cursoradapter-28.0.0.aar/1f52b4d1557434ef0395df3108745c32/AndroidManifest.xml:17:1-22:12
MERGED from [com.android.support:cardview-v7:28.0.0] /Users/tarun/.gradle/caches/transforms-1/files-1.1/cardview-v7-28.0.0.aar/30a6d03834bbcd43da7782c7f7025f13/AndroidManifest.xml:17:1-22:12
MERGED from [com.android.support:interpolator:28.0.0] /Users/tarun/.gradle/caches/transforms-1/files-1.1/interpolator-28.0.0.aar/a52087bbed2d13db7956ae06de27163e/AndroidManifest.xml:17:1-22:12
MERGED from [android.arch.lifecycle:runtime:1.1.1] /Users/tarun/.gradle/caches/transforms-1/files-1.1/runtime-1.1.1.aar/226fea2c67944857aaca7a1703f283e8/AndroidManifest.xml:17:1-22:12
MERGED from [com.android.support:documentfile:28.0.0] /Users/tarun/.gradle/caches/transforms-1/files-1.1/documentfile-28.0.0.aar/92dd92aed4da1dddfd7a94dc1135b027/AndroidManifest.xml:17:1-22:12
MERGED from [com.android.support:localbroadcastmanager:28.0.0] /Users/tarun/.gradle/caches/transforms-1/files-1.1/localbroadcastmanager-28.0.0.aar/d7628d776b4b4a438507ed6d3b36bdcd/AndroidManifest.xml:17:1-22:12
MERGED from [com.android.support:print:28.0.0] /Users/tarun/.gradle/caches/transforms-1/files-1.1/print-28.0.0.aar/44d131b08e4ac9ba27263ec016e77712/AndroidManifest.xml:17:1-22:12
MERGED from [android.arch.lifecycle:viewmodel:1.1.1] /Users/tarun/.gradle/caches/transforms-1/files-1.1/viewmodel-1.1.1.aar/bd2c0cb56b7d3c255b1cf9aab92d78e0/AndroidManifest.xml:17:1-22:12
MERGED from [android.arch.lifecycle:livedata:1.1.1] /Users/tarun/.gradle/caches/transforms-1/files-1.1/livedata-1.1.1.aar/bba8e9b1f33aceda5e3898de396b1163/AndroidManifest.xml:17:1-22:12
MERGED from [android.arch.lifecycle:livedata-core:1.1.1] /Users/tarun/.gradle/caches/transforms-1/files-1.1/livedata-core-1.1.1.aar/3a21c8140f0ad0a6e8f4635bea413164/AndroidManifest.xml:17:1-22:12
MERGED from [android.arch.core:runtime:1.1.1] /Users/tarun/.gradle/caches/transforms-1/files-1.1/runtime-1.1.1.aar/5311ddf3b17afccf69e47c8f8ddd7f73/AndroidManifest.xml:17:1-22:12
MERGED from [com.facebook.fresco:fresco:1.10.0] /Users/tarun/.gradle/caches/transforms-1/files-1.1/fresco-1.10.0.aar/64f54a157c987ae520d5bbcac44d263d/AndroidManifest.xml:2:1-9:12
MERGED from [com.facebook.fresco:imagepipeline-okhttp3:1.10.0] /Users/tarun/.gradle/caches/transforms-1/files-1.1/imagepipeline-okhttp3-1.10.0.aar/aebbb2bf5e98090b5a0f820eedfeec66/AndroidManifest.xml:2:1-9:12
MERGED from [com.facebook.fresco:drawee:1.10.0] /Users/tarun/.gradle/caches/transforms-1/files-1.1/drawee-1.10.0.aar/6e1100c731668fd0ae1804992a8e7f8d/AndroidManifest.xml:2:1-9:12
MERGED from [com.facebook.fresco:imagepipeline:1.10.0] /Users/tarun/.gradle/caches/transforms-1/files-1.1/imagepipeline-1.10.0.aar/3ae0afb9d23a6ea69c3f52b8855d09d0/AndroidManifest.xml:2:1-9:12
MERGED from [com.facebook.fresco:imagepipeline-base:1.10.0] /Users/tarun/.gradle/caches/transforms-1/files-1.1/imagepipeline-base-1.10.0.aar/6448d4fa0a9a984bed6e71fb8938fcd1/AndroidManifest.xml:2:1-9:12
MERGED from [com.facebook.soloader:soloader:0.6.0] /Users/tarun/.gradle/caches/transforms-1/files-1.1/soloader-0.6.0.aar/488b70f09a3a02953d330e7306a65370/AndroidManifest.xml:2:1-13:12
MERGED from [com.facebook.fresco:fbcore:1.10.0] /Users/tarun/.gradle/caches/transforms-1/files-1.1/fbcore-1.10.0.aar/ea1ebcdbd98b1bddb2269b907e32967d/AndroidManifest.xml:2:1-9:12
INJECTED from /Users/tarun/Projects/Electrical4U/android/app/src/debug/AndroidManifest.xml:2:1-8:12
INJECTED from /Users/tarun/Projects/Electrical4U/android/app/src/debug/AndroidManifest.xml:2:1-8:12
INJECTED from /Users/tarun/Projects/Electrical4U/android/app/src/debug/AndroidManifest.xml:2:1-8:12
	package
		ADDED from /Users/tarun/Projects/Electrical4U/android/app/src/main/AndroidManifest.xml:2:3-29
		INJECTED from /Users/tarun/Projects/Electrical4U/android/app/src/main/AndroidManifest.xml
		ADDED from /Users/tarun/Projects/Electrical4U/android/app/src/main/AndroidManifest.xml:2:3-29
		INJECTED from /Users/tarun/Projects/Electrical4U/android/app/src/debug/AndroidManifest.xml
	android:versionName
		INJECTED from /Users/tarun/Projects/Electrical4U/android/app/src/main/AndroidManifest.xml
		ADDED from /Users/tarun/Projects/Electrical4U/android/app/src/main/AndroidManifest.xml:1:1-40:12
		INJECTED from /Users/tarun/Projects/Electrical4U/android/app/src/debug/AndroidManifest.xml
	xmlns:tools
		ADDED from /Users/tarun/Projects/Electrical4U/android/app/src/debug/AndroidManifest.xml:3:5-51
	android:versionCode
		INJECTED from /Users/tarun/Projects/Electrical4U/android/app/src/main/AndroidManifest.xml
		ADDED from /Users/tarun/Projects/Electrical4U/android/app/src/main/AndroidManifest.xml:1:1-40:12
		INJECTED from /Users/tarun/Projects/Electrical4U/android/app/src/debug/AndroidManifest.xml
	xmlns:android
		ADDED from /Users/tarun/Projects/Electrical4U/android/app/src/main/AndroidManifest.xml:1:11-69
uses-permission#android.permission.INTERNET
ADDED from /Users/tarun/Projects/Electrical4U/android/app/src/main/AndroidManifest.xml:4:5-67
MERGED from [:lottie-react-native] /Users/tarun/Projects/Electrical4U/node_modules/lottie-react-native/src/android/build/intermediates/library_manifest/debug/AndroidManifest.xml:9:5-67
MERGED from [:lottie-react-native] /Users/tarun/Projects/Electrical4U/node_modules/lottie-react-native/src/android/build/intermediates/library_manifest/debug/AndroidManifest.xml:9:5-67
	android:name
		ADDED from /Users/tarun/Projects/Electrical4U/android/app/src/main/AndroidManifest.xml:4:22-64
uses-permission#android.permission.ACCESS_NETWORK_STATE
ADDED from /Users/tarun/Projects/Electrical4U/android/app/src/main/AndroidManifest.xml:5:5-79
	android:name
		ADDED from /Users/tarun/Projects/Electrical4U/android/app/src/main/AndroidManifest.xml:5:22-76
application
ADDED from /Users/tarun/Projects/Electrical4U/android/app/src/main/AndroidManifest.xml:7:5-38:19
MERGED from /Users/tarun/Projects/Electrical4U/android/app/src/main/AndroidManifest.xml:7:5-38:19
MERGED from /Users/tarun/Projects/Electrical4U/android/app/src/main/AndroidManifest.xml:7:5-38:19
MERGED from [:react-native-webview] /Users/tarun/Projects/Electrical4U/node_modules/react-native-webview/android/build/intermediates/library_manifest/debug/AndroidManifest.xml:11:5-21:19
MERGED from [:react-native-webview] /Users/tarun/Projects/Electrical4U/node_modules/react-native-webview/android/build/intermediates/library_manifest/debug/AndroidManifest.xml:11:5-21:19
MERGED from [:react-native-auth0] /Users/tarun/Projects/Electrical4U/node_modules/react-native-auth0/android/build/intermediates/library_manifest/debug/AndroidManifest.xml:11:5-12:19
MERGED from [:react-native-auth0] /Users/tarun/Projects/Electrical4U/node_modules/react-native-auth0/android/build/intermediates/library_manifest/debug/AndroidManifest.xml:11:5-12:19
MERGED from [:react-native-splash-screen] /Users/tarun/Projects/Electrical4U/node_modules/react-native-splash-screen/android/build/intermediates/library_manifest/debug/AndroidManifest.xml:11:5-12:19
MERGED from [:react-native-splash-screen] /Users/tarun/Projects/Electrical4U/node_modules/react-native-splash-screen/android/build/intermediates/library_manifest/debug/AndroidManifest.xml:11:5-12:19
MERGED from [com.facebook.react:react-native:0.59.3] /Users/tarun/.gradle/caches/transforms-1/files-1.1/react-native-0.59.3.aar/8e2e1bd500ee5d94151b0d7aa6637fa9/AndroidManifest.xml:11:5-20
MERGED from [com.facebook.react:react-native:0.59.3] /Users/tarun/.gradle/caches/transforms-1/files-1.1/react-native-0.59.3.aar/8e2e1bd500ee5d94151b0d7aa6637fa9/AndroidManifest.xml:11:5-20
MERGED from [com.android.support:design:28.0.0] /Users/tarun/.gradle/caches/transforms-1/files-1.1/design-28.0.0.aar/ad9ebb95c543f7728466b26e89c0fd63/AndroidManifest.xml:22:5-20
MERGED from [com.android.support:design:28.0.0] /Users/tarun/.gradle/caches/transforms-1/files-1.1/design-28.0.0.aar/ad9ebb95c543f7728466b26e89c0fd63/AndroidManifest.xml:22:5-20
MERGED from [com.airbnb.android:lottie:2.5.6] /Users/tarun/.gradle/caches/transforms-1/files-1.1/lottie-2.5.6.aar/de9b693baf96b9e86fda30b11ce18ba5/AndroidManifest.xml:11:5-20
MERGED from [com.airbnb.android:lottie:2.5.6] /Users/tarun/.gradle/caches/transforms-1/files-1.1/lottie-2.5.6.aar/de9b693baf96b9e86fda30b11ce18ba5/AndroidManifest.xml:11:5-20
MERGED from [com.android.support:support-compat:28.0.0] /Users/tarun/.gradle/caches/transforms-1/files-1.1/support-compat-28.0.0.aar/65696362e30bcf2799df14744b0a628b/AndroidManifest.xml:22:5-94
MERGED from [com.android.support:support-compat:28.0.0] /Users/tarun/.gradle/caches/transforms-1/files-1.1/support-compat-28.0.0.aar/65696362e30bcf2799df14744b0a628b/AndroidManifest.xml:22:5-94
MERGED from [com.android.support:versionedparcelable:28.0.0] /Users/tarun/.gradle/caches/transforms-1/files-1.1/versionedparcelable-28.0.0.aar/14862ce14df9e3ca6b5586bf73ab734f/AndroidManifest.xml:22:5-23:19
MERGED from [com.android.support:versionedparcelable:28.0.0] /Users/tarun/.gradle/caches/transforms-1/files-1.1/versionedparcelable-28.0.0.aar/14862ce14df9e3ca6b5586bf73ab734f/AndroidManifest.xml:22:5-23:19
MERGED from [com.facebook.soloader:soloader:0.6.0] /Users/tarun/.gradle/caches/transforms-1/files-1.1/soloader-0.6.0.aar/488b70f09a3a02953d330e7306a65370/AndroidManifest.xml:11:5-20
MERGED from [com.facebook.soloader:soloader:0.6.0] /Users/tarun/.gradle/caches/transforms-1/files-1.1/soloader-0.6.0.aar/488b70f09a3a02953d330e7306a65370/AndroidManifest.xml:11:5-20
	android:appComponentFactory
		ADDED from [com.android.support:support-compat:28.0.0] /Users/tarun/.gradle/caches/transforms-1/files-1.1/support-compat-28.0.0.aar/65696362e30bcf2799df14744b0a628b/AndroidManifest.xml:22:18-91
	android:label
		ADDED from /Users/tarun/Projects/Electrical4U/android/app/src/main/AndroidManifest.xml:9:7-39
		ADDED from /Users/tarun/Projects/Electrical4U/android/app/src/main/AndroidManifest.xml:9:7-39
	tools:ignore
		ADDED from /Users/tarun/Projects/Electrical4U/android/app/src/debug/AndroidManifest.xml:7:75-114
	tools:targetApi
		ADDED from /Users/tarun/Projects/Electrical4U/android/app/src/debug/AndroidManifest.xml:7:54-74
	android:icon
		ADDED from /Users/tarun/Projects/Electrical4U/android/app/src/main/AndroidManifest.xml:10:7-41
		ADDED from /Users/tarun/Projects/Electrical4U/android/app/src/main/AndroidManifest.xml:10:7-41
	android:allowBackup
		ADDED from /Users/tarun/Projects/Electrical4U/android/app/src/main/AndroidManifest.xml:11:7-34
		ADDED from /Users/tarun/Projects/Electrical4U/android/app/src/main/AndroidManifest.xml:11:7-34
	android:theme
		ADDED from /Users/tarun/Projects/Electrical4U/android/app/src/main/AndroidManifest.xml:12:7-38
		ADDED from /Users/tarun/Projects/Electrical4U/android/app/src/main/AndroidManifest.xml:12:7-38
	android:networkSecurityConfig
		ADDED from /Users/tarun/Projects/Electrical4U/android/app/src/main/AndroidManifest.xml:13:7-67
		ADDED from /Users/tarun/Projects/Electrical4U/android/app/src/main/AndroidManifest.xml:13:7-67
	android:usesCleartextTraffic
		ADDED from /Users/tarun/Projects/Electrical4U/android/app/src/debug/AndroidManifest.xml:7:18-53
	android:name
		ADDED from /Users/tarun/Projects/Electrical4U/android/app/src/main/AndroidManifest.xml:8:7-38
		ADDED from /Users/tarun/Projects/Electrical4U/android/app/src/main/AndroidManifest.xml:8:7-38
activity#com.electrical4u.MainActivity
ADDED from /Users/tarun/Projects/Electrical4U/android/app/src/main/AndroidManifest.xml:15:7-36:18
	android:screenOrientation
		ADDED from /Users/tarun/Projects/Electrical4U/android/app/src/main/AndroidManifest.xml:21:9-45
	android:label
		ADDED from /Users/tarun/Projects/Electrical4U/android/app/src/main/AndroidManifest.xml:17:9-41
	android:launchMode
		ADDED from /Users/tarun/Projects/Electrical4U/android/app/src/main/AndroidManifest.xml:20:9-40
	android:windowSoftInputMode
		ADDED from /Users/tarun/Projects/Electrical4U/android/app/src/main/AndroidManifest.xml:19:9-51
	android:configChanges
		ADDED from /Users/tarun/Projects/Electrical4U/android/app/src/main/AndroidManifest.xml:18:9-79
	android:name
		ADDED from /Users/tarun/Projects/Electrical4U/android/app/src/main/AndroidManifest.xml:16:9-37
intent-filter#action:name:android.intent.action.MAIN+category:name:android.intent.category.LAUNCHER
ADDED from /Users/tarun/Projects/Electrical4U/android/app/src/main/AndroidManifest.xml:23:9-26:25
action#android.intent.action.MAIN
ADDED from /Users/tarun/Projects/Electrical4U/android/app/src/main/AndroidManifest.xml:24:13-65
	android:name
		ADDED from /Users/tarun/Projects/Electrical4U/android/app/src/main/AndroidManifest.xml:24:21-62
category#android.intent.category.LAUNCHER
ADDED from /Users/tarun/Projects/Electrical4U/android/app/src/main/AndroidManifest.xml:25:13-73
	android:name
		ADDED from /Users/tarun/Projects/Electrical4U/android/app/src/main/AndroidManifest.xml:25:23-70
intent-filter#action:name:android.intent.action.VIEW+category:name:android.intent.category.BROWSABLE+category:name:android.intent.category.DEFAULT+data:host:dev-whlxe8a0.auth0.com+data:pathPrefix:/android/com.electrical4u/callback+data:scheme:com.electrical4u
ADDED from /Users/tarun/Projects/Electrical4U/android/app/src/main/AndroidManifest.xml:27:9-35:17
action#android.intent.action.VIEW
ADDED from /Users/tarun/Projects/Electrical4U/android/app/src/main/AndroidManifest.xml:28:5-57
	android:name
		ADDED from /Users/tarun/Projects/Electrical4U/android/app/src/main/AndroidManifest.xml:28:13-54
category#android.intent.category.DEFAULT
ADDED from /Users/tarun/Projects/Electrical4U/android/app/src/main/AndroidManifest.xml:29:5-64
	android:name
		ADDED from /Users/tarun/Projects/Electrical4U/android/app/src/main/AndroidManifest.xml:29:15-61
category#android.intent.category.BROWSABLE
ADDED from /Users/tarun/Projects/Electrical4U/android/app/src/main/AndroidManifest.xml:30:5-66
	android:name
		ADDED from /Users/tarun/Projects/Electrical4U/android/app/src/main/AndroidManifest.xml:30:15-63
data
ADDED from /Users/tarun/Projects/Electrical4U/android/app/src/main/AndroidManifest.xml:31:5-34:45
	android:host
		ADDED from /Users/tarun/Projects/Electrical4U/android/app/src/main/AndroidManifest.xml:32:9-46
	android:scheme
		ADDED from /Users/tarun/Projects/Electrical4U/android/app/src/main/AndroidManifest.xml:34:9-42
	android:pathPrefix
		ADDED from /Users/tarun/Projects/Electrical4U/android/app/src/main/AndroidManifest.xml:33:9-64
activity#com.facebook.react.devsupport.DevSettingsActivity
ADDED from /Users/tarun/Projects/Electrical4U/android/app/src/main/AndroidManifest.xml:37:7-84
	android:name
		ADDED from /Users/tarun/Projects/Electrical4U/android/app/src/main/AndroidManifest.xml:37:17-81
uses-sdk
INJECTED from /Users/tarun/Projects/Electrical4U/android/app/src/main/AndroidManifest.xml reason: use-sdk injection requested
INJECTED from /Users/tarun/Projects/Electrical4U/android/app/src/main/AndroidManifest.xml
INJECTED from /Users/tarun/Projects/Electrical4U/android/app/src/main/AndroidManifest.xml
MERGED from [:react-native-snackbar] /Users/tarun/Projects/Electrical4U/node_modules/react-native-snackbar/android/build/intermediates/library_manifest/debug/AndroidManifest.xml:7:5-9:41
MERGED from [:react-native-snackbar] /Users/tarun/Projects/Electrical4U/node_modules/react-native-snackbar/android/build/intermediates/library_manifest/debug/AndroidManifest.xml:7:5-9:41
MERGED from [:react-native-webview] /Users/tarun/Projects/Electrical4U/node_modules/react-native-webview/android/build/intermediates/library_manifest/debug/AndroidManifest.xml:7:5-9:41
MERGED from [:react-native-webview] /Users/tarun/Projects/Electrical4U/node_modules/react-native-webview/android/build/intermediates/library_manifest/debug/AndroidManifest.xml:7:5-9:41
MERGED from [:lottie-react-native] /Users/tarun/Projects/Electrical4U/node_modules/lottie-react-native/src/android/build/intermediates/library_manifest/debug/AndroidManifest.xml:5:5-7:41
MERGED from [:lottie-react-native] /Users/tarun/Projects/Electrical4U/node_modules/lottie-react-native/src/android/build/intermediates/library_manifest/debug/AndroidManifest.xml:5:5-7:41
MERGED from [:react-native-auth0] /Users/tarun/Projects/Electrical4U/node_modules/react-native-auth0/android/build/intermediates/library_manifest/debug/AndroidManifest.xml:7:5-9:41
MERGED from [:react-native-auth0] /Users/tarun/Projects/Electrical4U/node_modules/react-native-auth0/android/build/intermediates/library_manifest/debug/AndroidManifest.xml:7:5-9:41
MERGED from [:@react-native-community_async-storage] /Users/tarun/Projects/Electrical4U/node_modules/@react-native-community/async-storage/android/build/intermediates/library_manifest/debug/AndroidManifest.xml:5:5-7:41
MERGED from [:@react-native-community_async-storage] /Users/tarun/Projects/Electrical4U/node_modules/@react-native-community/async-storage/android/build/intermediates/library_manifest/debug/AndroidManifest.xml:5:5-7:41
MERGED from [:react-native-splash-screen] /Users/tarun/Projects/Electrical4U/node_modules/react-native-splash-screen/android/build/intermediates/library_manifest/debug/AndroidManifest.xml:7:5-9:41
MERGED from [:react-native-splash-screen] /Users/tarun/Projects/Electrical4U/node_modules/react-native-splash-screen/android/build/intermediates/library_manifest/debug/AndroidManifest.xml:7:5-9:41
MERGED from [:react-native-gesture-handler] /Users/tarun/Projects/Electrical4U/node_modules/react-native-gesture-handler/android/build/intermediates/library_manifest/debug/AndroidManifest.xml:7:5-9:41
MERGED from [:react-native-gesture-handler] /Users/tarun/Projects/Electrical4U/node_modules/react-native-gesture-handler/android/build/intermediates/library_manifest/debug/AndroidManifest.xml:7:5-9:41
MERGED from [com.facebook.react:react-native:0.59.3] /Users/tarun/.gradle/caches/transforms-1/files-1.1/react-native-0.59.3.aar/8e2e1bd500ee5d94151b0d7aa6637fa9/AndroidManifest.xml:7:5-9:41
MERGED from [com.facebook.react:react-native:0.59.3] /Users/tarun/.gradle/caches/transforms-1/files-1.1/react-native-0.59.3.aar/8e2e1bd500ee5d94151b0d7aa6637fa9/AndroidManifest.xml:7:5-9:41
MERGED from [com.android.support:design:28.0.0] /Users/tarun/.gradle/caches/transforms-1/files-1.1/design-28.0.0.aar/ad9ebb95c543f7728466b26e89c0fd63/AndroidManifest.xml:20:5-44
MERGED from [com.android.support:design:28.0.0] /Users/tarun/.gradle/caches/transforms-1/files-1.1/design-28.0.0.aar/ad9ebb95c543f7728466b26e89c0fd63/AndroidManifest.xml:20:5-44
MERGED from [com.airbnb.android:lottie:2.5.6] /Users/tarun/.gradle/caches/transforms-1/files-1.1/lottie-2.5.6.aar/de9b693baf96b9e86fda30b11ce18ba5/AndroidManifest.xml:7:5-9:41
MERGED from [com.airbnb.android:lottie:2.5.6] /Users/tarun/.gradle/caches/transforms-1/files-1.1/lottie-2.5.6.aar/de9b693baf96b9e86fda30b11ce18ba5/AndroidManifest.xml:7:5-9:41
MERGED from [com.android.support:appcompat-v7:28.0.0] /Users/tarun/.gradle/caches/transforms-1/files-1.1/appcompat-v7-28.0.0.aar/c4225e7f9a5099b6b2ea19197b566862/AndroidManifest.xml:20:5-44
MERGED from [com.android.support:appcompat-v7:28.0.0] /Users/tarun/.gradle/caches/transforms-1/files-1.1/appcompat-v7-28.0.0.aar/c4225e7f9a5099b6b2ea19197b566862/AndroidManifest.xml:20:5-44
MERGED from [com.android.support:support-v4:28.0.0] /Users/tarun/.gradle/caches/transforms-1/files-1.1/support-v4-28.0.0.aar/add567e1ac1587c5553d16a3de43c96b/AndroidManifest.xml:20:5-44
MERGED from [com.android.support:support-v4:28.0.0] /Users/tarun/.gradle/caches/transforms-1/files-1.1/support-v4-28.0.0.aar/add567e1ac1587c5553d16a3de43c96b/AndroidManifest.xml:20:5-44
MERGED from [com.android.support:customtabs:28.0.0] /Users/tarun/.gradle/caches/transforms-1/files-1.1/customtabs-28.0.0.aar/be239105ec8fefa58da91bc8dd86288f/AndroidManifest.xml:20:5-44
MERGED from [com.android.support:customtabs:28.0.0] /Users/tarun/.gradle/caches/transforms-1/files-1.1/customtabs-28.0.0.aar/be239105ec8fefa58da91bc8dd86288f/AndroidManifest.xml:20:5-44
MERGED from [com.android.support:support-fragment:28.0.0] /Users/tarun/.gradle/caches/transforms-1/files-1.1/support-fragment-28.0.0.aar/0774be8c538fc470aa69c78859584e56/AndroidManifest.xml:20:5-44
MERGED from [com.android.support:support-fragment:28.0.0] /Users/tarun/.gradle/caches/transforms-1/files-1.1/support-fragment-28.0.0.aar/0774be8c538fc470aa69c78859584e56/AndroidManifest.xml:20:5-44
MERGED from [com.android.support:animated-vector-drawable:28.0.0] /Users/tarun/.gradle/caches/transforms-1/files-1.1/animated-vector-drawable-28.0.0.aar/d948719e4bedef3ef7932f879f1c26dc/AndroidManifest.xml:20:5-44
MERGED from [com.android.support:animated-vector-drawable:28.0.0] /Users/tarun/.gradle/caches/transforms-1/files-1.1/animated-vector-drawable-28.0.0.aar/d948719e4bedef3ef7932f879f1c26dc/AndroidManifest.xml:20:5-44
MERGED from [com.android.support:recyclerview-v7:28.0.0] /Users/tarun/.gradle/caches/transforms-1/files-1.1/recyclerview-v7-28.0.0.aar/a10a32660396eeab5a91e9bcd9986585/AndroidManifest.xml:20:5-44
MERGED from [com.android.support:recyclerview-v7:28.0.0] /Users/tarun/.gradle/caches/transforms-1/files-1.1/recyclerview-v7-28.0.0.aar/a10a32660396eeab5a91e9bcd9986585/AndroidManifest.xml:20:5-44
MERGED from [com.android.support:support-core-ui:28.0.0] /Users/tarun/.gradle/caches/transforms-1/files-1.1/support-core-ui-28.0.0.aar/7f1dec4472fd0f4377216ac7be32c730/AndroidManifest.xml:20:5-44
MERGED from [com.android.support:support-core-ui:28.0.0] /Users/tarun/.gradle/caches/transforms-1/files-1.1/support-core-ui-28.0.0.aar/7f1dec4472fd0f4377216ac7be32c730/AndroidManifest.xml:20:5-44
MERGED from [com.android.support:support-core-utils:28.0.0] /Users/tarun/.gradle/caches/transforms-1/files-1.1/support-core-utils-28.0.0.aar/d6629831927a4faf3c3b3ed2602d38cc/AndroidManifest.xml:20:5-44
MERGED from [com.android.support:support-core-utils:28.0.0] /Users/tarun/.gradle/caches/transforms-1/files-1.1/support-core-utils-28.0.0.aar/d6629831927a4faf3c3b3ed2602d38cc/AndroidManifest.xml:20:5-44
MERGED from [com.android.support:support-vector-drawable:28.0.0] /Users/tarun/.gradle/caches/transforms-1/files-1.1/support-vector-drawable-28.0.0.aar/e62b4dac0e098cb36ff8e1585ca17ff1/AndroidManifest.xml:20:5-44
MERGED from [com.android.support:support-vector-drawable:28.0.0] /Users/tarun/.gradle/caches/transforms-1/files-1.1/support-vector-drawable-28.0.0.aar/e62b4dac0e098cb36ff8e1585ca17ff1/AndroidManifest.xml:20:5-44
MERGED from [com.android.support:support-media-compat:28.0.0] /Users/tarun/.gradle/caches/transforms-1/files-1.1/support-media-compat-28.0.0.aar/bd01dc4605de3611f1dd88e49c9025e5/AndroidManifest.xml:20:5-44
MERGED from [com.android.support:support-media-compat:28.0.0] /Users/tarun/.gradle/caches/transforms-1/files-1.1/support-media-compat-28.0.0.aar/bd01dc4605de3611f1dd88e49c9025e5/AndroidManifest.xml:20:5-44
MERGED from [com.android.support:transition:28.0.0] /Users/tarun/.gradle/caches/transforms-1/files-1.1/transition-28.0.0.aar/bde0340804d81edfc833bfb83fd0ca39/AndroidManifest.xml:20:5-44
MERGED from [com.android.support:transition:28.0.0] /Users/tarun/.gradle/caches/transforms-1/files-1.1/transition-28.0.0.aar/bde0340804d81edfc833bfb83fd0ca39/AndroidManifest.xml:20:5-44
MERGED from [com.android.support:loader:28.0.0] /Users/tarun/.gradle/caches/transforms-1/files-1.1/loader-28.0.0.aar/4b65a941f69bf07ad29b3ae7350c9150/AndroidManifest.xml:20:5-44
MERGED from [com.android.support:loader:28.0.0] /Users/tarun/.gradle/caches/transforms-1/files-1.1/loader-28.0.0.aar/4b65a941f69bf07ad29b3ae7350c9150/AndroidManifest.xml:20:5-44
MERGED from [com.android.support:viewpager:28.0.0] /Users/tarun/.gradle/caches/transforms-1/files-1.1/viewpager-28.0.0.aar/d34b9739a61ca0e322cdd0d1cb0be8c8/AndroidManifest.xml:20:5-44
MERGED from [com.android.support:viewpager:28.0.0] /Users/tarun/.gradle/caches/transforms-1/files-1.1/viewpager-28.0.0.aar/d34b9739a61ca0e322cdd0d1cb0be8c8/AndroidManifest.xml:20:5-44
MERGED from [com.android.support:coordinatorlayout:28.0.0] /Users/tarun/.gradle/caches/transforms-1/files-1.1/coordinatorlayout-28.0.0.aar/330d5ff014276389ced0351b6e5e58eb/AndroidManifest.xml:20:5-44
MERGED from [com.android.support:coordinatorlayout:28.0.0] /Users/tarun/.gradle/caches/transforms-1/files-1.1/coordinatorlayout-28.0.0.aar/330d5ff014276389ced0351b6e5e58eb/AndroidManifest.xml:20:5-44
MERGED from [com.android.support:drawerlayout:28.0.0] /Users/tarun/.gradle/caches/transforms-1/files-1.1/drawerlayout-28.0.0.aar/921501d67fead7118cfb96cd320f3c10/AndroidManifest.xml:20:5-44
MERGED from [com.android.support:drawerlayout:28.0.0] /Users/tarun/.gradle/caches/transforms-1/files-1.1/drawerlayout-28.0.0.aar/921501d67fead7118cfb96cd320f3c10/AndroidManifest.xml:20:5-44
MERGED from [com.android.support:slidingpanelayout:28.0.0] /Users/tarun/.gradle/caches/transforms-1/files-1.1/slidingpanelayout-28.0.0.aar/4486ff6a46861c129764a811554a558a/AndroidManifest.xml:20:5-44
MERGED from [com.android.support:slidingpanelayout:28.0.0] /Users/tarun/.gradle/caches/transforms-1/files-1.1/slidingpanelayout-28.0.0.aar/4486ff6a46861c129764a811554a558a/AndroidManifest.xml:20:5-44
MERGED from [com.android.support:customview:28.0.0] /Users/tarun/.gradle/caches/transforms-1/files-1.1/customview-28.0.0.aar/e24edaadffc60e478b8584d4c1a39baf/AndroidManifest.xml:20:5-44
MERGED from [com.android.support:customview:28.0.0] /Users/tarun/.gradle/caches/transforms-1/files-1.1/customview-28.0.0.aar/e24edaadffc60e478b8584d4c1a39baf/AndroidManifest.xml:20:5-44
MERGED from [com.android.support:swiperefreshlayout:28.0.0] /Users/tarun/.gradle/caches/transforms-1/files-1.1/swiperefreshlayout-28.0.0.aar/f197c9ec1f96cd96d2fc7ea2dfd882e6/AndroidManifest.xml:20:5-44
MERGED from [com.android.support:swiperefreshlayout:28.0.0] /Users/tarun/.gradle/caches/transforms-1/files-1.1/swiperefreshlayout-28.0.0.aar/f197c9ec1f96cd96d2fc7ea2dfd882e6/AndroidManifest.xml:20:5-44
MERGED from [com.android.support:asynclayoutinflater:28.0.0] /Users/tarun/.gradle/caches/transforms-1/files-1.1/asynclayoutinflater-28.0.0.aar/e2830d4a9ce8f657dd5f5fe13f457e9c/AndroidManifest.xml:20:5-44
MERGED from [com.android.support:asynclayoutinflater:28.0.0] /Users/tarun/.gradle/caches/transforms-1/files-1.1/asynclayoutinflater-28.0.0.aar/e2830d4a9ce8f657dd5f5fe13f457e9c/AndroidManifest.xml:20:5-44
MERGED from [com.android.support:support-compat:28.0.0] /Users/tarun/.gradle/caches/transforms-1/files-1.1/support-compat-28.0.0.aar/65696362e30bcf2799df14744b0a628b/AndroidManifest.xml:20:5-44
MERGED from [com.android.support:support-compat:28.0.0] /Users/tarun/.gradle/caches/transforms-1/files-1.1/support-compat-28.0.0.aar/65696362e30bcf2799df14744b0a628b/AndroidManifest.xml:20:5-44
MERGED from [com.android.support:versionedparcelable:28.0.0] /Users/tarun/.gradle/caches/transforms-1/files-1.1/versionedparcelable-28.0.0.aar/14862ce14df9e3ca6b5586bf73ab734f/AndroidManifest.xml:20:5-44
MERGED from [com.android.support:versionedparcelable:28.0.0] /Users/tarun/.gradle/caches/transforms-1/files-1.1/versionedparcelable-28.0.0.aar/14862ce14df9e3ca6b5586bf73ab734f/AndroidManifest.xml:20:5-44
MERGED from [com.android.support:cursoradapter:28.0.0] /Users/tarun/.gradle/caches/transforms-1/files-1.1/cursoradapter-28.0.0.aar/1f52b4d1557434ef0395df3108745c32/AndroidManifest.xml:20:5-44
MERGED from [com.android.support:cursoradapter:28.0.0] /Users/tarun/.gradle/caches/transforms-1/files-1.1/cursoradapter-28.0.0.aar/1f52b4d1557434ef0395df3108745c32/AndroidManifest.xml:20:5-44
MERGED from [com.android.support:cardview-v7:28.0.0] /Users/tarun/.gradle/caches/transforms-1/files-1.1/cardview-v7-28.0.0.aar/30a6d03834bbcd43da7782c7f7025f13/AndroidManifest.xml:20:5-44
MERGED from [com.android.support:cardview-v7:28.0.0] /Users/tarun/.gradle/caches/transforms-1/files-1.1/cardview-v7-28.0.0.aar/30a6d03834bbcd43da7782c7f7025f13/AndroidManifest.xml:20:5-44
MERGED from [com.android.support:interpolator:28.0.0] /Users/tarun/.gradle/caches/transforms-1/files-1.1/interpolator-28.0.0.aar/a52087bbed2d13db7956ae06de27163e/AndroidManifest.xml:20:5-44
MERGED from [com.android.support:interpolator:28.0.0] /Users/tarun/.gradle/caches/transforms-1/files-1.1/interpolator-28.0.0.aar/a52087bbed2d13db7956ae06de27163e/AndroidManifest.xml:20:5-44
MERGED from [android.arch.lifecycle:runtime:1.1.1] /Users/tarun/.gradle/caches/transforms-1/files-1.1/runtime-1.1.1.aar/226fea2c67944857aaca7a1703f283e8/AndroidManifest.xml:20:5-44
MERGED from [android.arch.lifecycle:runtime:1.1.1] /Users/tarun/.gradle/caches/transforms-1/files-1.1/runtime-1.1.1.aar/226fea2c67944857aaca7a1703f283e8/AndroidManifest.xml:20:5-44
MERGED from [com.android.support:documentfile:28.0.0] /Users/tarun/.gradle/caches/transforms-1/files-1.1/documentfile-28.0.0.aar/92dd92aed4da1dddfd7a94dc1135b027/AndroidManifest.xml:20:5-44
MERGED from [com.android.support:documentfile:28.0.0] /Users/tarun/.gradle/caches/transforms-1/files-1.1/documentfile-28.0.0.aar/92dd92aed4da1dddfd7a94dc1135b027/AndroidManifest.xml:20:5-44
MERGED from [com.android.support:localbroadcastmanager:28.0.0] /Users/tarun/.gradle/caches/transforms-1/files-1.1/localbroadcastmanager-28.0.0.aar/d7628d776b4b4a438507ed6d3b36bdcd/AndroidManifest.xml:20:5-44
MERGED from [com.android.support:localbroadcastmanager:28.0.0] /Users/tarun/.gradle/caches/transforms-1/files-1.1/localbroadcastmanager-28.0.0.aar/d7628d776b4b4a438507ed6d3b36bdcd/AndroidManifest.xml:20:5-44
MERGED from [com.android.support:print:28.0.0] /Users/tarun/.gradle/caches/transforms-1/files-1.1/print-28.0.0.aar/44d131b08e4ac9ba27263ec016e77712/AndroidManifest.xml:20:5-44
MERGED from [com.android.support:print:28.0.0] /Users/tarun/.gradle/caches/transforms-1/files-1.1/print-28.0.0.aar/44d131b08e4ac9ba27263ec016e77712/AndroidManifest.xml:20:5-44
MERGED from [android.arch.lifecycle:viewmodel:1.1.1] /Users/tarun/.gradle/caches/transforms-1/files-1.1/viewmodel-1.1.1.aar/bd2c0cb56b7d3c255b1cf9aab92d78e0/AndroidManifest.xml:20:5-44
MERGED from [android.arch.lifecycle:viewmodel:1.1.1] /Users/tarun/.gradle/caches/transforms-1/files-1.1/viewmodel-1.1.1.aar/bd2c0cb56b7d3c255b1cf9aab92d78e0/AndroidManifest.xml:20:5-44
MERGED from [android.arch.lifecycle:livedata:1.1.1] /Users/tarun/.gradle/caches/transforms-1/files-1.1/livedata-1.1.1.aar/bba8e9b1f33aceda5e3898de396b1163/AndroidManifest.xml:20:5-44
MERGED from [android.arch.lifecycle:livedata:1.1.1] /Users/tarun/.gradle/caches/transforms-1/files-1.1/livedata-1.1.1.aar/bba8e9b1f33aceda5e3898de396b1163/AndroidManifest.xml:20:5-44
MERGED from [android.arch.lifecycle:livedata-core:1.1.1] /Users/tarun/.gradle/caches/transforms-1/files-1.1/livedata-core-1.1.1.aar/3a21c8140f0ad0a6e8f4635bea413164/AndroidManifest.xml:20:5-44
MERGED from [android.arch.lifecycle:livedata-core:1.1.1] /Users/tarun/.gradle/caches/transforms-1/files-1.1/livedata-core-1.1.1.aar/3a21c8140f0ad0a6e8f4635bea413164/AndroidManifest.xml:20:5-44
MERGED from [android.arch.core:runtime:1.1.1] /Users/tarun/.gradle/caches/transforms-1/files-1.1/runtime-1.1.1.aar/5311ddf3b17afccf69e47c8f8ddd7f73/AndroidManifest.xml:20:5-44
MERGED from [android.arch.core:runtime:1.1.1] /Users/tarun/.gradle/caches/transforms-1/files-1.1/runtime-1.1.1.aar/5311ddf3b17afccf69e47c8f8ddd7f73/AndroidManifest.xml:20:5-44
MERGED from [com.facebook.fresco:fresco:1.10.0] /Users/tarun/.gradle/caches/transforms-1/files-1.1/fresco-1.10.0.aar/64f54a157c987ae520d5bbcac44d263d/AndroidManifest.xml:5:5-7:41
MERGED from [com.facebook.fresco:fresco:1.10.0] /Users/tarun/.gradle/caches/transforms-1/files-1.1/fresco-1.10.0.aar/64f54a157c987ae520d5bbcac44d263d/AndroidManifest.xml:5:5-7:41
MERGED from [com.facebook.fresco:imagepipeline-okhttp3:1.10.0] /Users/tarun/.gradle/caches/transforms-1/files-1.1/imagepipeline-okhttp3-1.10.0.aar/aebbb2bf5e98090b5a0f820eedfeec66/AndroidManifest.xml:5:5-7:41
MERGED from [com.facebook.fresco:imagepipeline-okhttp3:1.10.0] /Users/tarun/.gradle/caches/transforms-1/files-1.1/imagepipeline-okhttp3-1.10.0.aar/aebbb2bf5e98090b5a0f820eedfeec66/AndroidManifest.xml:5:5-7:41
MERGED from [com.facebook.fresco:drawee:1.10.0] /Users/tarun/.gradle/caches/transforms-1/files-1.1/drawee-1.10.0.aar/6e1100c731668fd0ae1804992a8e7f8d/AndroidManifest.xml:5:5-7:41
MERGED from [com.facebook.fresco:drawee:1.10.0] /Users/tarun/.gradle/caches/transforms-1/files-1.1/drawee-1.10.0.aar/6e1100c731668fd0ae1804992a8e7f8d/AndroidManifest.xml:5:5-7:41
MERGED from [com.facebook.fresco:imagepipeline:1.10.0] /Users/tarun/.gradle/caches/transforms-1/files-1.1/imagepipeline-1.10.0.aar/3ae0afb9d23a6ea69c3f52b8855d09d0/AndroidManifest.xml:5:5-7:41
MERGED from [com.facebook.fresco:imagepipeline:1.10.0] /Users/tarun/.gradle/caches/transforms-1/files-1.1/imagepipeline-1.10.0.aar/3ae0afb9d23a6ea69c3f52b8855d09d0/AndroidManifest.xml:5:5-7:41
MERGED from [com.facebook.fresco:imagepipeline-base:1.10.0] /Users/tarun/.gradle/caches/transforms-1/files-1.1/imagepipeline-base-1.10.0.aar/6448d4fa0a9a984bed6e71fb8938fcd1/AndroidManifest.xml:5:5-7:41
MERGED from [com.facebook.fresco:imagepipeline-base:1.10.0] /Users/tarun/.gradle/caches/transforms-1/files-1.1/imagepipeline-base-1.10.0.aar/6448d4fa0a9a984bed6e71fb8938fcd1/AndroidManifest.xml:5:5-7:41
MERGED from [com.facebook.soloader:soloader:0.6.0] /Users/tarun/.gradle/caches/transforms-1/files-1.1/soloader-0.6.0.aar/488b70f09a3a02953d330e7306a65370/AndroidManifest.xml:7:5-9:41
MERGED from [com.facebook.soloader:soloader:0.6.0] /Users/tarun/.gradle/caches/transforms-1/files-1.1/soloader-0.6.0.aar/488b70f09a3a02953d330e7306a65370/AndroidManifest.xml:7:5-9:41
MERGED from [com.facebook.fresco:fbcore:1.10.0] /Users/tarun/.gradle/caches/transforms-1/files-1.1/fbcore-1.10.0.aar/ea1ebcdbd98b1bddb2269b907e32967d/AndroidManifest.xml:5:5-7:41
MERGED from [com.facebook.fresco:fbcore:1.10.0] /Users/tarun/.gradle/caches/transforms-1/files-1.1/fbcore-1.10.0.aar/ea1ebcdbd98b1bddb2269b907e32967d/AndroidManifest.xml:5:5-7:41
INJECTED from /Users/tarun/Projects/Electrical4U/android/app/src/debug/AndroidManifest.xml
INJECTED from /Users/tarun/Projects/Electrical4U/android/app/src/debug/AndroidManifest.xml
	android:targetSdkVersion
		INJECTED from /Users/tarun/Projects/Electrical4U/android/app/src/main/AndroidManifest.xml
		INJECTED from /Users/tarun/Projects/Electrical4U/android/app/src/debug/AndroidManifest.xml
	android:minSdkVersion
		INJECTED from /Users/tarun/Projects/Electrical4U/android/app/src/main/AndroidManifest.xml
		INJECTED from /Users/tarun/Projects/Electrical4U/android/app/src/debug/AndroidManifest.xml
uses-permission#android.permission.SYSTEM_ALERT_WINDOW
ADDED from /Users/tarun/Projects/Electrical4U/android/app/src/debug/AndroidManifest.xml:5:5-77
	android:name
		ADDED from /Users/tarun/Projects/Electrical4U/android/app/src/debug/AndroidManifest.xml:5:22-75
provider#com.reactnativecommunity.webview.RNCWebViewFileProvider
ADDED from [:react-native-webview] /Users/tarun/Projects/Electrical4U/node_modules/react-native-webview/android/build/intermediates/library_manifest/debug/AndroidManifest.xml:12:9-20:20
	android:grantUriPermissions
		ADDED from [:react-native-webview] /Users/tarun/Projects/Electrical4U/node_modules/react-native-webview/android/build/intermediates/library_manifest/debug/AndroidManifest.xml:16:13-47
	android:authorities
		ADDED from [:react-native-webview] /Users/tarun/Projects/Electrical4U/node_modules/react-native-webview/android/build/intermediates/library_manifest/debug/AndroidManifest.xml:14:13-64
	android:exported
		ADDED from [:react-native-webview] /Users/tarun/Projects/Electrical4U/node_modules/react-native-webview/android/build/intermediates/library_manifest/debug/AndroidManifest.xml:15:13-37
	android:name
		ADDED from [:react-native-webview] /Users/tarun/Projects/Electrical4U/node_modules/react-native-webview/android/build/intermediates/library_manifest/debug/AndroidManifest.xml:13:13-83
meta-data#android.support.FILE_PROVIDER_PATHS
ADDED from [:react-native-webview] /Users/tarun/Projects/Electrical4U/node_modules/react-native-webview/android/build/intermediates/library_manifest/debug/AndroidManifest.xml:17:13-19:63
	android:resource
		ADDED from [:react-native-webview] /Users/tarun/Projects/Electrical4U/node_modules/react-native-webview/android/build/intermediates/library_manifest/debug/AndroidManifest.xml:19:17-60
	android:name
		ADDED from [:react-native-webview] /Users/tarun/Projects/Electrical4U/node_modules/react-native-webview/android/build/intermediates/library_manifest/debug/AndroidManifest.xml:18:17-67
