{
  "migIndex": 1,
  "data": [
    {
      "path": "assets/fonts/.DS_Store",
      "sha1": "c299e5750a928894951b3a6a5a3e3aaab01b8160"
    },
    {
      "path": "assets/fonts/Nexa Bold.otf",
      "sha1": "9304fa53ba726ecc05ae0d3191013cb07284c113"
    },
    {
      "path": "assets/fonts/Nexa Book Italic.otf",
      "sha1": "506658af0cf3433cece28cd86571b04e0dfcdf73"
    },
    {
      "path": "assets/fonts/Nexa Heavy.otf",
      "sha1": "22b3de3f9d6ea98c727639c009d8a89e5066f75a"
    },
    {
      "path": "assets/fonts/Nexa Light.otf",
      "sha1": "842b31ac5675a235ba24ab12b4e377c8c5789ed6"
    },
    {
      "path": "assets/fonts/Nexa Regular.otf",
      "sha1": "fab53a0445e1cb7fc28c54e36ac257cc29e667dd"
    },
    {
      "path": "assets/fonts/Palatino-Linotype-Bold.ttf",
      "sha1": "f3dada03d9dae1417956bae33406a0b9f7477f8d"
    },
    {
      "path": "assets/fonts/Palatino-Linotype-Regular.ttf",
      "sha1": "a4db4c4264ab7257af67c7d1a30df7e232fa1296"
    }
  ]
}
